{
  "resourcePermission" : [ {
    "path" : "/apiproducts",
    "permissions" : [ "get", "put" ]
  }, {
    "path" : "/apiproducts/*",
    "permissions" : [ "get", "delete", "put" ]
  }, {
    "path" : "/reports",
    "permissions" : [ "get" ]
  }, {
    "path" : "/reports/*",
    "permissions" : [ "get" ]
  }, {
    "path" : "/apps",
    "permissions" : [ "get", "delete" ]
  }, {
    "path" : "/apps/*",
    "permissions" : [ "get", "delete" ]
  }, {
    "path" : "/developers",
    "permissions" : [ "get" ]
  }, {
    "path" : "/developers/*",
    "permissions" : [ "get" ]
  }, {
    "path" : "/developers/*/apps",
    "permissions" : [ "get" ]
  }, {
    "path" : "/developers/*/apps/*",
    "permissions" : [ "get" ]
  }, {
    "path" : "/developers/*/apps/*/keys/*",
    "permissions" : [ "get" ]
  }, {
    "path" : "/companies",
    "permissions" : [ ]
  }, {
    "path" : "/companies/*/apps",
    "permissions" : [ "get", "put" ]
  }, {
    "path" : "/companies/*/apps/*",
    "permissions" : [ "get", "put" ]
  }, {
    "path" : "/",
    "permissions" : [ "get" ]
  }, {
    "path" : "/deployments",
    "permissions" : [ "get" ]
  }, {
    "path" : "/applications",
    "permissions" : [ "get" ]
  }, {
    "path" : "/applications/*",
    "permissions" : [ "get" ]
  }, {
    "path" : "/applications/*/revision/*",
    "permissions" : [ "get" ]
  }, {
    "path" : "/applications/*/deployments",
    "permissions" : [ "get" ]
  }, {
    "path" : "/applications/*/revisions/*/deployments",
    "permissions" : [ "get" ]
  }, {
    "path" : "/applications/${APITemplate}",
    "permissions" : [ "get" ]
  }, {
    "path" : "/environments/${env}/applications/${APITemplate}/revisions/*/debugsessions",
    "permissions" : [ "get" ]
  }, {
    "path" : "/sharedflows/*",
    "permissions" : [ "get" ]
  }, {
    "path" : "/sharedflows/*/revisions/*",
    "permissions" : [ "get" ]
  }, {
    "path" : "/sharedflows/*/revisions/*/deploy",
    "permissions" : [ "get" ]
  }, {
    "path" : "/environments/*/sharedflows/*/revisions/*/deployments",
    "permissions" : [ "get" ]
  }, {
    "path" : "/sharedflows",
    "permissions" : [ "get" ]
  }
  ]
}
